…
All of the functions can be combined. For example, the following will:

-   Create 100 cross-validation pairs
-   To each be fitted in proportions of .5 to 1 in increments of .1.
-   With a regression modelling all interactions, and a decision tree modelling all features.

``` r
pipelearner(iris) %>% 
  learn_cvpairs(n = 100) %>% 
  learn_curves(seq(.5, 1, by = .1)) %>% 
  learn_models(c(lm), Sepal.Width ~ .*.) %>% 
  learn_models(c(rpart::rpart), Sepal.Width ~ .) %>% 
  learn() %>% 
  summary()
#> # A tibble: 1,200 × 10
#>    models.id cv_pairs.id train_p      fit      target model     params
#>        <chr>       <chr>   <dbl>   <list>       <chr> <chr>     <list>
#> 1          1         001     0.5 <S3: lm> Sepal.Width    lm <list [1]>
#> 2          1         001     0.6 <S3: lm> Sepal.Width    lm <list [1]>
#> 3          1         001     0.7 <S3: lm> Sepal.Width    lm <list [1]>
#> 4          1         001     0.8 <S3: lm> Sepal.Width    lm <list [1]>
#> 5          1         001     0.9 <S3: lm> Sepal.Width    lm <list [1]>
#> 6          1         001     1.0 <S3: lm> Sepal.Width    lm <list [1]>
#> 7          1         002     0.5 <S3: lm> Sepal.Width    lm <list [1]>
#> 8          1         002     0.6 <S3: lm> Sepal.Width    lm <list [1]>
#> 9          1         002     0.7 <S3: lm> Sepal.Width    lm <list [1]>
#> 10         1         002     0.8 <S3: lm> Sepal.Width    lm <list [1]>
#> # ... with 1,190 more rows, and 3 more variables: train <list>,
#> #   test <list>, .id <chr>
```
